name,phone1,phone2,phone3,email
Ella,(013147) 85697,09 91 57 92 17,(08) 8411 7873,ella@example.com
Cesar,07624 986909,05 85 57 30 38,(04) 4011 8776,cesar@example.com
Mara,0800 900 6339,07 35 94 34 49,(02) 3694 8940,mara@example.com
Austin,(0110) 388 6660,02 90 50 25 92,(04) 3353 0949,austin@example.com
Margaret,07312 014137,07 86 22 06 29,(08) 4115 9919,margaret@example.com
Boris,056 3373 0646,08 98 41 81 15,(01) 2623 3913,boris@example.com
Eve,(016977) 5175,08 12 42 12 05,(08) 0604 5094,eve@example.com
Simone,07994 428689,05 66 41 10 89,(09) 1548 4940,simone@example.com
